pos 0, 41, 19
pos -1.1, 41, 19
pos -2.2, 41, 19
pos -1.8, 39, 19.8
pos -2.9, 39.2, 19.8
pos -4.0, 39.4, 19.8
pos -2.0, 37, 20
pos -3.0, 37.2, 20
pos -4.0, 37.4, 20
pos -3.0, 35.5, 21
pos -3.9, 36, 20.5
pos -4.8, 36.5, 20

dir 0.12, 1, 1
dir 0.1, 1, 1
dir 0.08, 1, 1
dir 0.12, 1, 1
dir 0.1, 1, 1
dir 0.08, 1, 1
dir 0.12, 1, 1
dir 0.1, 1, 1
dir 0.08, 1, 1
dir 0.12, 1, 1
dir 0.1, 1, 1
dir 0.08, 1, 1
